{
    "editor": [
        {
            "icon": "",
            "key": "general",
            "header": "General",
            "disabled": false,
            "fields": [
                {
                    "key": "coin-padding",
                    "header": "Coin Padding",
                    "type": "text"
                },
                {
                    "key": "game-title",
                    "header": "Game Title",
                    "type": "text"
                }
            ]
        },
        {
            "icon": "",
            "key": "images",
            "header": "Images",
            "disabled": false,
            "fields": [
                {
                    "key": "coin-a",
                    "header": "Coin A",
                    "type": "image"
                },
                {
                    "key": "coin-b",
                    "header": "Coin B",
                    "type": "image"
                },
                {
                    "key": "coin-c",
                    "header": "Coin C",
                    "type": "image"
                },
                {
                    "key": "coin-d",
                    "header": "Coin D",
                    "type": "image"
                },
                {
                    "key": "coin-e",
                    "header": "Coin e",
                    "type": "image"
                },
                {
                    "key": "coin-f",
                    "header": "Coin f",
                    "type": "image"
                }
            ]
        }
    ],
    "config": {
        "general": {
            "coin-padding": "2px",
            "game-title": "covid care"
        },
        "images": {
            "coin-a": "http://playcent.com/protected/project-picker/54db3f6f286342e69ccd349ceecd1dd5",
            "coin-b": "http://playcent.com/protected/project-picker/4f729ea2b49d4603958bd175524cc2f4",
            "coin-c": "http://playcent.com/protected/project-picker/2fa4784a10cf4f79b766e8fac675f328",
            "coin-d": "http://playcent.com/protected/project-picker/b363109ecc4e41408373710bd9153302",
            "coin-e": "http://playcent.com/protected/project-picker/610f16eb649b4aa981a34017c5aeb2e5",
            "coin-f": "http://playcent.com/protected/project-picker/5579509275bd4fe1937717a51f9101ca"
        }
    }
}